{
    "@context": "http://iiif.io/api/presentation/3/context.json",
    "id": "https://raw.githubusercontent.com/Participatory-Image-Archives/pia-iiif-manifest-host/main/boilerplates/collection_boilerplate01.json",
    "type": "Collection",
    "label": {
      "en": [
        "IIIF Collection of Manifests from the SGV_10 Familie Kreis Collection"
      ]
    },
      "provider": [
        {
          "id": "https://d-nb.info/gnd/1186091584",
          "type": "Agent",
          "label": {
            "de": [
              "Schweizerische Gesellschaft für Volkskunde. Fotoarchiv"
            ]
          },
          "homepage": [
            {
              "id": "https://archiv.sgv-sstp.ch/",
              "type": "Text",
              "label": {
                "en": [
                  "SSFS Photo archives"
                ],
                "de": [
                  "SGV Fotoarchiv"
                ],
                "fr": [
                  "Archives de la SSTP"
                ]
              },
              "format": "text/html",
              "language": [
                "de"
              ]
            }
          ]
        }
      ],  
    "logo": [
        {
          "id": "https://pia-iiif.dhlab.unibas.ch/SGV_logo.jp2/full/max/0/default.jpg",
          "type": "Image",
          "format": "image/jpeg",
          "height": 149,
          "width": 500,
          "service": [
            {
              "id": "https://pia-iiif.dhlab.unibas.ch/SGV_logo.jp2",
              "type": "ImageService3",
              "profile": "level2"
            }
          ]
        }
      ],
    "items": [
      {
        "id": "https://iiif.participatory-archives.ch/1/manifest.json",
        "type": "Manifest",
        "label": {
          "de": [
            "[Porträt von Hermann Kreis]"
          ]
        }
      },
      {
        "id": "https://iiif.participatory-archives.ch/2/manifest.json",
        "type": "Manifest",
        "label": {
          "de": [
            "[Porträt von Hermann Kreis]"
          ]
        }
      },
      {
        "id": "https://iiif.participatory-archives.ch/3/manifest.json",
        "type": "Manifest",
        "label": {
          "de": [
            "[Porträt von Emilie und Hermann Kreis-Martz]"
          ]
        }
      }
    ]
  }
