{
    "@context": "http://iiif.io/api/discovery/1/context.json",
    "id": "https://iiif.participatory-archives.ch/activity/create/page-0.json",
    "type": "OrderedCollectionPage",
    "startIndex": 1,
    "partOf": {
      "id": "https://iiif.participatory-archives.ch/activity/create/all-changes.json",
      "type": "OrderedCollection"
    },
    "next": {
      "id": "https://iiif.participatory-archives.ch/activity/create/page-1.json",
      "type": "OrderedCollectionPage"
    },
    "orderedItems": [
      {
        "id": "https://iiif.participatory-archives.ch/activity/create/SGV_12N_000001.json",
        "type": "Create",
        "endTime": "2022-12-05T12:00:00Z",
        "object": {
          "id": "https://iiif.participatory-archives.ch/SGV_12N_00001/manifest.json",
          "type": "Manifest",
          "name": "[Schwyzer Fasnacht]"
        },
        "actor": {
          "id": "https://codeberg.org/PIA/pia-iiif-manifest-host",
          "type": "Application"
        }
      },
      {
        "id": "https://iiif.participatory-archives.ch/activity/create/SGV_12N_000002.json",
        "type": "Create",
        "endTime": "2022-12-05T12:00:00Z",
        "object": {
          "id": "https://iiif.participatory-archives.ch/SGV_12N_00002/manifest.json",
          "type": "Manifest",
          "name": "[Schwyzer Fasnacht]"
        },
        "actor": {
          "id": "https://codeberg.org/PIA/pia-iiif-manifest-host",
          "type": "Application"
        }
      },
      {
        "id": "https://iiif.participatory-archives.ch/activity/create/SGV_12N_000003.json",
        "type": "Create",
        "endTime": "2022-12-05T12:00:00Z",
        "object": {
          "id": "https://iiif.participatory-archives.ch/SGV_12N_00003/manifest.json",
          "type": "Manifest",
          "name": "[Schwyzer Fasnacht]"
        },
        "actor": {
          "id": "https://codeberg.org/PIA/pia-iiif-manifest-host",
          "type": "Application"
        }
      }
    ]
}